…
<img src="final_project_files/figure-html/unnamed-chunk-18-1.png" width="120%" />



```r
dt_clean %>% distinct(city)
```

```
## # A tibble: 117 x 1
##    city    
##    <chr>   
##  1 city_40 
##  2 city_162
##  3 city_160
##  4 city_46 
##  5 city_103
##  6 city_61 
##  7 city_114
##  8 city_159
##  9 city_100
## 10 city_21 
## # ... with 107 more rows
```
…
